{
    "application_title": "Dev Toolbox: Proxy Class Generator",
    "app_author": "CodingJungle",
    "app_directory": "dtproxy",
    "app_protected": 0,
    "app_website": "https:\/\/codingjungle.com",
    "app_update_check": ""
}