{
    "1": {
        "method": "createTable",
        "params": [
            {
                "name": "dtdevplus_",
                "columns": {
                    "id": {
                        "allow_null": false,
                        "auto_increment": true,
                        "binary": false,
                        "comment": "ID Number",
                        "decimals": null,
                        "default": null,
                        "length": 20,
                        "name": "id",
                        "type": "BIGINT",
                        "unsigned": false,
                        "values": [],
                        "zerofill": false
                    }
                },
                "indexes": {
                    "PRIMARY": {
                        "type": "primary",
                        "name": "PRIMARY",
                        "length": [
                            null
                        ],
                        "columns": [
                            "id"
                        ]
                    }
                },
                "collation": "utf8mb4_unicode_ci",
                "engine": "MyISAM"
            }
        ]
    }
}