{
    "10000": "1.0.0",
    "10001": "1.0.0",
    "10002": "1.0.1",
    "10003": "1.0.2",
    "10004": "1.0.3",
    "10100": "1.1.0",
    "10101": "1.1.1",
    "10200": "1.2.0",
    "10300": "1.3.0"
}