{
    "application_title": "Dev Toolbox: Dev Folders",
    "app_author": "CodingJungle",
    "app_directory": "dtdevfolder",
    "app_protected": 0,
    "app_website": "https:\/\/codingjungle.com",
    "app_update_check": ""
}