{
    "1": {
        "method": "createTable",
        "params": [
            {
                "name": "dtcontent_generator",
                "columns": {
                    "generator_id": {
                        "name": "generator_id",
                        "type": "BIGINT",
                        "length": 20,
                        "decimals": null,
                        "values": null,
                        "allow_null": false,
                        "default": null,
                        "comment": "ID Number",
                        "unsigned": true,
                        "zerofill": false,
                        "auto_increment": true,
                        "binary": false
                    },
                    "generator_gid": {
                        "name": "generator_gid",
                        "type": "BIGINT",
                        "length": 20,
                        "decimals": null,
                        "values": null,
                        "allow_null": true,
                        "default": null,
                        "comment": "",
                        "unsigned": true,
                        "zerofill": false,
                        "auto_increment": false,
                        "binary": false
                    },
                    "generator_type": {
                        "name": "generator_type",
                        "type": "VARCHAR",
                        "length": 255,
                        "decimals": null,
                        "values": null,
                        "allow_null": true,
                        "default": null,
                        "comment": "",
                        "unsigned": false,
                        "zerofill": false,
                        "auto_increment": false,
                        "binary": false
                    }
                },
                "indexes": {
                    "PRIMARY": {
                        "type": "primary",
                        "name": "PRIMARY",
                        "columns": [
                            "id"
                        ],
                        "length": [
                            null
                        ]
                    }
                }
            }
        ]
    }
}