<?php
/**
 * @brief		Create Menu Extension : {class}
 * @author		<a href='https://www.invisioncommunity.com'>Invision Power Services, Inc.</a>
 * @copyright	(c) Invision Power Services, Inc.
 * @license		https://www.invisioncommunity.com/legal/standards/
 * @package		Invision Community
{subpackage}
 * @since		{date}
 */

namespace IPS\{app}\extensions\core\CreateMenu;

/* To prevent PHP errors (extending class does not exist) revealing path */
if ( !defined( '\IPS\SUITE_UNIQUE_KEY' ) )
{
	header( ( isset( $_SERVER['SERVER_PROTOCOL'] ) ? $_SERVER['SERVER_PROTOCOL'] : 'HTTP/1.0' ) . ' 403 Forbidden' );
	exit;
}

/**
 * Create Menu Extension: {class}
 */
class _{class}
{
	/**
	 * Get Items
	 *
	 * @return	array
	 */
	public function getItems()
	{
		return array(
			'{key}' => array(
				'link'  => \IPS\Http\Url::internal( '{link}', 'front', {seo}, {seoTitle} )
			)
		);
	}
}