{
    "dtprofiler_debug": {
        "name": "dtprofiler_debug",
        "columns": {
            "debug_id": {
                "allow_null": false,
                "auto_increment": true,
                "binary": false,
                "comment": "ID Number",
                "decimals": null,
                "default": null,
                "length": 20,
                "name": "debug_id",
                "type": "BIGINT",
                "unsigned": false,
                "values": [],
                "zerofill": false
            },
            "debug_key": {
                "name": "debug_key",
                "type": "VARCHAR",
                "length": 255,
                "decimals": null,
                "values": null,
                "allow_null": true,
                "default": null,
                "comment": "",
                "unsigned": false,
                "zerofill": false,
                "auto_increment": false,
                "binary": false
            },
            "debug_log": {
                "name": "debug_log",
                "type": "TEXT",
                "length": null,
                "decimals": null,
                "values": null,
                "allow_null": true,
                "default": null,
                "comment": "",
                "unsigned": false,
                "zerofill": false,
                "auto_increment": false,
                "binary": false
            },
            "debug_type": {
                "name": "debug_type",
                "type": "VARCHAR",
                "length": 255,
                "decimals": null,
                "values": null,
                "allow_null": true,
                "default": null,
                "comment": "",
                "unsigned": false,
                "zerofill": false,
                "auto_increment": false,
                "binary": false
            },
            "debug_time": {
                "name": "debug_time",
                "type": "INT",
                "length": 11,
                "decimals": null,
                "values": null,
                "allow_null": true,
                "default": null,
                "comment": "",
                "unsigned": true,
                "zerofill": false,
                "auto_increment": false,
                "binary": false
            },
            "debug_ajax": {
                "name": "debug_ajax",
                "type": "TINYINT",
                "length": 1,
                "decimals": null,
                "values": null,
                "allow_null": false,
                "default": "0",
                "comment": "",
                "unsigned": true,
                "zerofill": false,
                "auto_increment": false,
                "binary": false
            },
            "debug_viewed": {
                "name": "debug_viewed",
                "type": "TINYINT",
                "length": 1,
                "decimals": null,
                "values": null,
                "allow_null": false,
                "default": "0",
                "comment": "",
                "unsigned": true,
                "zerofill": false,
                "auto_increment": false,
                "binary": false
            }
        },
        "indexes": {
            "PRIMARY": {
                "type": "primary",
                "name": "PRIMARY",
                "length": [
                    null
                ],
                "columns": [
                    "debug_id"
                ]
            }
        },
        "collation": "utf8mb4_unicode_ci",
        "engine": "InnoDB"
    },
    "dtprofiler_memory": {
        "name": "dtprofiler_memory",
        "columns": {
            "memory_id": {
                "allow_null": false,
                "auto_increment": true,
                "binary": false,
                "comment": "ID Number",
                "decimals": null,
                "default": null,
                "length": 20,
                "name": "memory_id",
                "type": "BIGINT",
                "unsigned": false,
                "values": [],
                "zerofill": false
            },
            "memory_key": {
                "name": "memory_key",
                "type": "VARCHAR",
                "length": 255,
                "decimals": null,
                "values": null,
                "allow_null": true,
                "default": null,
                "comment": "",
                "unsigned": false,
                "zerofill": false,
                "auto_increment": false,
                "binary": false
            },
            "memory_log": {
                "name": "memory_log",
                "type": "TINYTEXT",
                "length": null,
                "decimals": null,
                "values": null,
                "allow_null": true,
                "default": null,
                "comment": "",
                "unsigned": false,
                "zerofill": false,
                "auto_increment": false,
                "binary": false
            },
            "memory_time": {
                "name": "memory_time",
                "type": "INT",
                "length": 11,
                "decimals": null,
                "values": null,
                "allow_null": true,
                "default": null,
                "comment": "",
                "unsigned": true,
                "zerofill": false,
                "auto_increment": false,
                "binary": false
            },
            "memory_ajax": {
                "name": "memory_ajax",
                "type": "TINYINT",
                "length": 1,
                "decimals": null,
                "values": null,
                "allow_null": false,
                "default": "0",
                "comment": "",
                "unsigned": true,
                "zerofill": false,
                "auto_increment": false,
                "binary": false
            }
        },
        "indexes": {
            "PRIMARY": {
                "type": "primary",
                "name": "PRIMARY",
                "length": [
                    null
                ],
                "columns": [
                    "memory_id"
                ]
            }
        },
        "collation": "utf8mb4_unicode_ci",
        "engine": "InnoDB"
    }
}